{
  "profiles": {
    "Explorers.DriveIn.TrainingPointsService.DataAccess": {
      "commandName": "Project",
      "launchBrowser": true,
      "environmentVariables": {
        "ASPNETCORE_ENVIRONMENT": "Development"
      },
      "applicationUrl": "https://localhost:53781;http://localhost:53783"
    }
  }
}