{
  "profiles": {
    "Explorers.DriveIn.DataAccess": {
      "commandName": "Project",
      "launchBrowser": true,
      "environmentVariables": {
        "ASPNETCORE_ENVIRONMENT": "Development"
      },
      "applicationUrl": "https://localhost:53787;http://localhost:53788"
    }
  }
}